# N	Nanoseconds
1	1924
11	963
21	1283
31	963
41	962
51	1283
61	962
71	962
81	1283
91	963
101	1284
111	1283
121	963
131	962
141	1283
151	962
161	962
171	1283
181	963
191	962
201	962
211	962
221	1283
231	962
241	1283
251	962
261	962
271	1283
281	963
291	962
301	1283
311	962
321	642
331	962
341	641
351	1283
361	962
371	962
381	962
391	962
401	962
411	963
421	963
431	1283
441	962
451	963
461	1283
471	963
481	962
491	1283
501	963
511	962
521	962
531	1283
541	962
551	962
561	1283
571	963
581	963
591	962
601	1283
611	962
621	962
631	963
641	1283
651	962
661	1283
671	1283
681	962
691	962
701	1283
711	962
721	962
731	1283
741	1283
751	1283
761	1604
771	962
781	962
791	1283
801	963
811	1283
821	962
831	1283
841	962
851	1283
861	1284
871	642
881	963
891	1283
901	962
911	963
921	1283
931	962
941	962
951	1283
961	962
971	963
981	1284
991	962
