^D:\SNHU FALL 2019\PROJECT02\QUICKSORT\QUICKSORT\DEBUG\MAIN.OBJ
D:\SNHU FALL 2019\PROJECT02\QUICKSORT\DEBUG\QUICKSORT.EXE
D:\SNHU FALL 2019\PROJECT02\QUICKSORT\DEBUG\QUICKSORT.ILK
D:\SNHU FALL 2019\PROJECT02\QUICKSORT\DEBUG\QUICKSORT.PDB
